[
    {
        "created": "20220515132554312",
        "text": "",
        "tags": "Inbox todo done",
        "modified": "20220517090048587",
        "title": "creat image plugin external ",
        "type": "text/vnd.tiddlywiki"
    }
]