[
    {
        "created": "20220515134937649",
        "text": "",
        "modified": "20220517090048587",
        "title": "make plugin source ",
        "tags": "Inbox todo done",
        "type": "text/vnd.tiddlywiki",
        "due": "",
        "priority": ""
    }
]