[
    {
        "created": "20210911212256922",
        "text": "<$vars\n\nsearch-list=\"[[$:/tags/Image]tagging[]]\"\n\nitem-template=\"$:/showInfo/search/img\"\n\nlist-class=\"\"\"\"\"\"\nlist-style=\"\"\"margin: 3px;padding:3px;border: 2px solid green; border-radius:5px;\"\"\"\n>\n{{{[<item-template>is[blank]then[$:/showInfo/search/list/titles]else<item-template>]}}}\n{{$:/showInfo/search/template}}\n\n</$vars>",
        "title": "$:/showInfo/search/SystemImage",
        "modified": "20220528031337969",
        "tags": "$:/tags/SideBar $:/showInfo/search $:/showInfo",
        "type": "text/vnd.tiddlywiki",
        "caption": " {{$:/core/images/picture}} Images",
        "icon": "",
        "page-cover": ""
    }
]