{
    "text": "Text of snippet. (Remember to add a descriptive title in the caption field).",
    "title": "neotw/snippet/",
    "tags": "$:/tags/TextEditor/Snippet",
    "caption": "Name as shown in menu"
}