{
    "title": "$:/plugins/oeyoews/twfooter",
    "name": "",
    "description": "",
    "author": "oeyoews",
    "version": "v0.0.3",
    "core-version": "5.2.2",
    "source": "",
    "list": "",
    "parent-plugin": "",
    "dependents": "",
    "plugin-type": "plugin",
    "packaged-by": "Gatha on 14th May 2022, 22:28:31"
}