{
    "title": "$:/palettes/test-PE",
    "text": "alert-background: #ffe476\nalert-border: #b99e2f\nalert-highlight: #881122\nalert-muted-foreground: #b99e2f\nbackground: #ffffff\nblockquote-bar: <<colour muted-foreground>>\nbutton-background: \nbutton-foreground: \nbutton-border: \ncode-background: #f7f7f9\ncode-border: #e1e1e8\ncode-foreground: #dd1144\ndiff-delete-background: #ffc9c9\ndiff-delete-foreground: <<colour foreground>>\ndiff-equal-background: \ndiff-equal-foreground: <<colour foreground>>\ndiff-insert-background: #aaefad\ndiff-insert-foreground: <<colour foreground>>\ndiff-invisible-background: \ndiff-invisible-foreground: <<colour muted-foreground>>\ndirty-indicator: #ff0000\ndownload-active: #2daa2d\ndownload-background: #34c734\ndownload-foreground: <<colour background>>\ndragger-background: <<colour foreground>>\ndragger-foreground: <<colour background>>\ndropdown-background: <<colour background>>\ndropdown-border: <<colour muted-foreground>>\ndropdown-tab-background-selected: #6fe1c1\ndropdown-tab-background: #d6d6d6\ndropzone-background: rgba(0,200,0,0.7)\nexternal-link-background-hover: inherit\nexternal-link-background-visited: inherit\nexternal-link-background: inherit\nexternal-link-foreground-hover: inherit\nexternal-link-foreground-visited: #0000aa\nexternal-link-foreground: #0000ee\nforeground: #333333\nmessage-background: #ecf2ff\nmessage-border: #cfd6e6\nmessage-foreground: #547599\nmodal-backdrop: <<colour foreground>>\nmodal-background: <<colour background>>\nmodal-border: #999999\nmodal-footer-background: #f5f5f5\nmodal-footer-border: #dddddd\nmodal-header-border: #eeeeee\nmuted-foreground: #bbb\nnotification-background: #ffffdd\nnotification-border: #999999\npage-background: #f4f4f4\npre-background: #f5f5f5\npre-border: #cccccc\nprimary: #5778d8\nselection-background: \nselection-foreground: \nselect-tag-background: \nselect-tag-foreground: \nsidebar-button-foreground: <<colour foreground>>\nsidebar-controls-foreground-hover: #000000\nsidebar-controls-foreground: #aaaaaa\nsidebar-foreground-shadow: rgba(255,255,255, 0.8)\nsidebar-foreground: #b51c1c\nsidebar-muted-foreground-hover: #22a840\nsidebar-muted-foreground: #c3c3c3\nsidebar-tab-background-selected: #f4f4f4\nsidebar-tab-background: #e0e0e0\nsidebar-tab-border-selected: <<colour tab-border-selected>>\nsidebar-tab-border: <<colour tab-border>>\nsidebar-tab-divider: #e4e4e4\nsidebar-tab-foreground-selected: \nsidebar-tab-foreground: <<colour tab-foreground>>\nsidebar-tiddler-link-foreground-hover: #444444\nsidebar-tiddler-link-foreground: #999999\nsite-title-foreground: <<colour tiddler-title-foreground>>\nstatic-alert-foreground: #aaaaaa\ntab-background-selected: #ffffff\ntab-background: #d8d8d8\ntab-border-selected: #d8d8d8\ntab-border: #cccccc\ntab-divider: #d8d8d8\ntab-foreground-selected: <<colour tab-foreground>>\ntab-foreground: #666666\ntable-border: #46ee4f\ntable-footer-background: #c8c8c8\ntable-header-background: #eae6fb\ntag-background: #349e21\ntag-foreground: #fe4848\ntiddler-background: #ffffff\ntiddler-border: #2e22bb\ntiddler-controls-foreground-hover: #3d2fe1\ntiddler-controls-foreground-selected: #ea231e\ntiddler-controls-foreground: #ceb971\ntiddler-editor-background: #fdfdf2\ntiddler-editor-border-image: #bcf2b5\ntiddler-editor-border: #9f9f9f\ntiddler-editor-fields-even: #d5f3f4\ntiddler-editor-fields-odd: #f4f7f4\ntiddler-info-background: #fdfdfd\ntiddler-info-border: #aea2f4\ntiddler-info-tab-background: #e8f9df\ntiddler-link-background: <<colour background>>\ntiddler-link-foreground: <<colour primary>>\ntiddler-subtitle-foreground: #9191f0\ntiddler-title-foreground: #9c1d89\ntoolbar-new-button: #1ba02c\ntoolbar-options-button: #2f6c9f\ntoolbar-save-button: #30ba45\ntoolbar-info-button: #47dcd5\ntoolbar-edit-button: #918820\ntoolbar-close-button: #2328e4\ntoolbar-delete-button: #dd2b2f\ntoolbar-cancel-button: #aea9ed\ntoolbar-done-button: #4bcf25\nuntagged-background: #d7d5d5\nvery-muted-foreground: #888888\nwikilist-background: #e5e5e5\nwikilist-item: #fff\nwikilist-info: #000\nwikilist-title: #666\nwikilist-title-svg: <<colour wikilist-title>>\nwikilist-url: #aaa\nwikilist-button-open: #4fb82b\nwikilist-button-open-hover: green\nwikilist-button-reveal: #9eb1e9\nwikilist-button-reveal-hover: blue\nwikilist-button-remove: #d85778\nwikilist-button-remove-hover: red\nwikilist-toolbar-background: #d3d3d3\nwikilist-toolbar-foreground: #888\nwikilist-droplink-dragover: rgba(255,192,192,0.5)\nwikilist-button-background: #acacac\nwikilist-button-foreground: #000",
    "type": "application/x-tiddler-dictionary",
    "color-scheme": "light",
    "created": "20220824115746794",
    "description": "Pale and unobtrusive",
    "modified": "20220826214829664",
    "name": "Vanilla-PE",
    "tags": "$:/tags/Palette",
    "revision": "0",
    "bag": "default"
}