{
    "title": "$:/plugins/oeyoews/tw-scrollbar",
    "name": "TiddlyWiki5 Scroolbar",
    "description": "TiddlyWiki5 scroolbar ",
    "author": "oeyoews",
    "version": "v0.0.6",
    "core-version": "5.2.3",
    "source": "",
    "list": "readme",
    "parent-plugin": "",
    "dependents": "",
    "plugin-type": "plugin",
    "packaged-by": "Gatha on 20th September 2022, 17:09:23"
}