{
    "text": "<<<\n\"\"\"\n\n\"\"\"\n<<<",
    "draft.title": "untitled 21",
    "tags": "EnglishWord",
    "created": "20220913003120773",
    "title": "Draft of 'untitled 21'",
    "draft.of": "untitled 21",
    "modified": "20220913003120773"
}