[
    {
        "created": "20220521113010251",
        "text": "",
        "title": "$:/plugins/oeyoews/shortcuts",
        "type": "application/json",
        "tags": "",
        "modified": "20220521123154763",
        "plugin-draft": "plugin",
        "extra-tiddlers": "oeyoews/shortcuts $:/config/ShortcutInfo/control $:/config/shortcuts/control",
        "version": "v0.0.7",
        "list": "readme",
        "name": "some shortcuts ",
        "description": "some shortcuts ",
        "author": "oeyoews"
    }
]