{
    "title": "$:/plugins/oeyoews/codemirror-keymap-vimjk",
    "name": "CodeMirror Keymap VimJK",
    "description": "Keymap compatible with Vim for CodeMirror",
    "author": "oeyoews",
    "version": "v0.1.2",
    "core-version": "5.2.3",
    "source": "",
    "list": "readme",
    "parent-plugin": "$:/plugins/tiddlywiki/codemirror",
    "dependents": "$:/plugins/tiddlywiki/codemirror-search-replace $:/plugins/tiddlywiki/codemirror-closebrackets",
    "plugin-type": "plugin",
    "packaged-by": "Gatha on 20th September 2022, 20:08:49"
}