[
    {
        "created": "20220518073310252",
        "tags": "$:/tags/PluginWiki_bk",
        "modified": "20220518091132615",
        "title": "$:/plugins/?/? 2",
        "type": "text/vnd.tiddlywiki",
        "cpl.title": "demo ",
        "cpl.version": "dmeo "
    }
]